<?xml version="1.0" encoding="UTF-8" standalone="no"?>
<!-- Created with Inkscape (http://www.inkscape.org/) -->

<svg
   xmlns:dc="http://purl.org/dc/elements/1.1/"
   xmlns:cc="http://creativecommons.org/ns#"
   xmlns:rdf="http://www.w3.org/1999/02/22-rdf-syntax-ns#"
   xmlns:svg="http://www.w3.org/2000/svg"
   xmlns="http://www.w3.org/2000/svg"
   xmlns:sodipodi="http://sodipodi.sourceforge.net/DTD/sodipodi-0.dtd"
   xmlns:inkscape="http://www.inkscape.org/namespaces/inkscape"
   width="36.124443mm"
   height="36.124439mm"
   viewBox="0 0 128 127.99998"
   id="svg2"
   version="1.1"
   inkscape:version="0.91 r"
   inkscape:export-filename="/media/www-dev/public/fablabo/mediawiki-1.27.0/skins/VectorFablabo/resources/images/co.png"
   inkscape:export-xdpi="17.58"
   inkscape:export-ydpi="17.58"
   sodipodi:docname="socials_logo.svg">
  <defs
     id="defs4" />
  <sodipodi:namedview
     id="base"
     pagecolor="#ffffff"
     bordercolor="#666666"
     borderopacity="1.0"
     inkscape:pageopacity="0.0"
     inkscape:pageshadow="2"
     inkscape:zoom="1.979899"
     inkscape:cx="152.15844"
     inkscape:cy="181.20137"
     inkscape:document-units="px"
     inkscape:current-layer="layer1"
     showgrid="false"
     fit-margin-top="0"
     fit-margin-left="0"
     fit-margin-right="0"
     fit-margin-bottom="0"
     inkscape:window-width="1920"
     inkscape:window-height="1051"
     inkscape:window-x="1920"
     inkscape:window-y="0"
     inkscape:window-maximized="1" />
  <metadata
     id="metadata7">
    <rdf:RDF>
      <cc:Work
         rdf:about="">
        <dc:format>image/svg+xml</dc:format>
        <dc:type
           rdf:resource="http://purl.org/dc/dcmitype/StillImage" />
        <dc:title></dc:title>
      </cc:Work>
    </rdf:RDF>
  </metadata>
  <g
     inkscape:label="Calque 1"
     inkscape:groupmode="layer"
     id="layer1"
     transform="translate(-182.84338,-505.66753)">
    <path
       style="fill:#fcee15;fill-opacity:1"
       d="m 314.84766,93.526102 0,127.999998 128,0 0,-127.999998 -128,0 z m 95.88476,28.158198 c 2.1846,0 3.95508,1.77153 3.95508,3.95703 l 0,63.76758 c 0,2.1846 -1.77048,3.95508 -3.95508,3.95508 l -18.26562,0 0,-27.75781 9.3164,0 1.39453,-10.81836 -10.71093,0 0,-6.90625 c 0,-3.1318 0.86912,-5.26563 5.36132,-5.26563 l 5.72657,-0.002 0,-9.67578 c -0.9912,-0.1318 -4.38971,-0.42578 -8.34571,-0.42578 -8.2598,0 -13.91406,5.04003 -13.91406,14.29883 l 0,7.97851 -9.3418,0 0,10.81836 9.3418,0 0,27.75781 -34.33008,0 c -2.1855,0 -3.95703,-1.77243 -3.95703,-3.95703 l 0,-63.76758 c 0,-2.1855 1.77153,-3.95507 3.95703,-3.95507 l 63.76758,0 0,-0.002 z"
       id="facebook-back"
       inkscape:connector-curvature="0" />
    <path
       style="fill:#fcee15;fill-opacity:1"
       d="m 446.85156,93.526102 0,127.999998 128,0 0,-127.999998 -128,0 z m 65.68164,28.160158 c 15.7256,0 26.06446,11.37158 26.06446,23.58398 0,16.1553 -8.97465,28.2207 -22.21485,28.2207 -4.4444,0 -8.62544,-2.40436 -10.06054,-5.13476 0,0 -2.38964,9.49021 -2.89454,11.32031 -1.7798,6.4648 -7.02438,12.93941 -7.42968,13.47461 -0.2846,0.3652 -0.91547,0.25002 -0.98047,-0.23438 -0.1147,-0.8252 -1.4497,-8.99019 0.125,-15.65039 0.7901,-3.3398 5.29492,-22.43554 5.29492,-22.43554 0,0 -1.31445,-2.63033 -1.31445,-6.51563 0,-6.1025 3.53955,-10.65625 7.93945,-10.65625 3.7451,0 5.55469,2.80959 5.55469,6.17969 0,3.7676 -2.39507,9.39603 -3.63477,14.61133 -1.0352,4.3696 2.1904,7.93164 6.5,7.93164 7.7998,0 13.05078,-10.02043 13.05078,-21.89063 0,-9.0224 -6.07566,-15.78125 -17.13086,-15.78125 -12.4854,0 -20.26953,9.31541 -20.26953,19.72071 0,3.5849 1.05955,6.11726 2.71485,8.07226 0.7603,0.8999 0.86915,1.26363 0.59375,2.29883 -0.2045,0.7598 -0.64845,2.58009 -0.84375,3.30469 -0.27,1.04 -1.11525,1.41399 -2.06055,1.02929 -5.75,-2.3506 -8.42969,-8.65086 -8.42969,-15.73046 0,-11.6978 9.86618,-25.71875 29.42578,-25.71875 z"
       id="pinterest-back"
       inkscape:connector-curvature="0" />
    <path
       style="fill:#fcee15;fill-opacity:1"
       d="m 182.84375,93.526102 0,127.999998 128,0 0,-127.999998 -128,0 z m 53.58594,25.599608 8.70312,0 3.40821,0 9.75195,0 c 0.1778,0 0.32226,0.14351 0.32226,0.32031 l 0,17.21875 c 0,0.1778 0.14352,0.32227 0.32032,0.32227 l 12.46679,0 c 0.1777,0 0.32227,0.14361 0.32227,0.32031 l 0,17.66601 c 0,0.1778 -0.14457,0.32227 -0.32227,0.32227 l -12.51953,0 c -0.1778,0 -0.32226,0.14261 -0.32226,0.32031 l 0,17.26758 c 0.0117,0.7119 0.0849,1.28711 0.20898,1.75781 0.0361,0.1397 0.168,0.23243 0.3125,0.23243 l 9.33399,0 0.4082,0 0.89844,0 c 0.1387,0 0.26068,0.0879 0.30468,0.21875 l 4.76368,14.11914 -0.50391,0.66406 c -2.5196,3.3145 -10.13376,6.05078 -17.81836,6.05078 -19.0977,0 -29.42773,-7.03522 -29.42773,-21.94922 l 0,-18.68164 -1.87305,0 -5.95117,0 c -0.1772,0 -0.32032,-0.14447 -0.32032,-0.32227 l 0,-15.16796 c 0,-0.1377 0.0874,-0.26069 0.21875,-0.30469 l 0.85547,-0.28516 c 7.6606,-2.5596 11.73633,-7.89355 12.82813,-16.78125 0.2636,-2.1494 2.06736,-3.30859 3.63086,-3.30859 z m 8.70312,3.14453 c -0.004,0 -0.44436,0.0156 -0.50976,0.54883 -1.1782,9.5937 -5.65533,15.79597 -13.67383,18.91797 -0.1221,0.0469 -0.20508,0.16402 -0.20508,0.29492 l 0,9.79687 c 0,0.1778 0.14447,0.32032 0.32227,0.32032 l 7.50195,0 c 0.1773,0 0.32031,0.14456 0.32031,0.32226 l 0,21.50586 c 0,6.999 4.14055,18.84275 19.65625,18.84375 l 0.002,0 c 0.17579,0 0.34954,-0.003 0.52734,-0.006 4.7177,-0.0791 9.63961,-1.79105 12.03711,-4.09765 0.0918,-0.0869 0.11812,-0.2187 0.0781,-0.33789 l -3.18359,-9.44141 c -0.0586,-0.1729 -0.24612,-0.25786 -0.41602,-0.19336 -1.8203,0.6953 -3.81448,1.09961 -5.55468,1.09961 -4.3194,0 -6.54494,-2.33305 -6.61914,-6.93555 l 0,-20.4375 c 0,-0.1777 0.14251,-0.32226 0.32031,-0.32226 l 12.52148,0 c 0.1777,0 0.32031,-0.14252 0.32031,-0.32032 l 0,-11.375 c 0,-0.1777 -0.14261,-0.32226 -0.32031,-0.32226 l -12.46679,0 c -0.1778,0 -0.32227,-0.14261 -0.32227,-0.32031 l 0,-17.21875 c 0,-0.1777 -0.14261,-0.32227 -0.32031,-0.32227 l -10.01563,0 z"
       id="tumblr-back"
       inkscape:connector-curvature="0" />
    <path
       id="path4180"
       d="M 230.21058,140.331"
       stroke-miterlimit="10"
       inkscape:connector-curvature="0"
       style="fill:none;stroke:#ffea00;stroke-width:4;stroke-miterlimit:10" />
    <path
       style="fill:#fcee15;fill-opacity:1"
       d="m 578.85742,93.526102 0,127.999998 128,0 0,-127.999998 -128,0 z m 77.78711,34.873048 c 4.2295,0 8.05178,1.78613 10.73438,4.64453 3.3496,-0.6592 6.49709,-1.88376 9.33789,-3.56836 -1.0977,3.4336 -3.4307,6.31436 -6.4668,8.13476 2.9755,-0.3555 5.81057,-1.14445 8.44727,-2.31445 -1.9707,2.9493 -4.46489,5.53813 -7.33789,7.61133 0.0283,0.6309 0.043,1.26464 0.043,1.90234 0,19.4336 -14.79199,41.8418 -41.84179,41.8418 -8.3052,0 -16.03467,-2.43257 -22.54297,-6.60547 1.1503,0.1358 2.32081,0.20508 3.50781,0.20508 6.8901,0 13.23047,-2.35062 18.26367,-6.29492 -6.435,-0.1192 -11.86473,-4.37109 -13.73633,-10.21289 0.898,0.1709 1.81793,0.26367 2.76563,0.26367 1.3408,0 2.6407,-0.17963 3.875,-0.51563 -6.7275,-1.3515 -11.79688,-7.29492 -11.79688,-14.41992 0,-0.0625 9.6e-4,-0.12405 0.002,-0.18555 1.9824,1.1015 4.24945,1.76365 6.66015,1.83985 -3.9458,-2.6377 -6.54297,-7.13874 -6.54297,-12.24024 0,-2.6953 0.72609,-5.22263 1.99219,-7.39453 7.2529,8.8975 18.08845,14.75194 30.31055,15.36524 -0.2505,-1.0762 -0.38086,-2.19827 -0.38086,-3.35157 0,-8.1211 6.58493,-14.70507 14.70703,-14.70507 z"
       id="twitter-back"
       inkscape:connector-curvature="0" />
    <rect
       height="128"
       width="128"
       id="rect4227"
       x="314.84796"
       y="308.68777"
       style="fill:#262626" />
    <path
       d="m 410.73176,336.84799 -63.7676,0 c -2.1855,0 -3.956,1.7705 -3.956,3.956 l 0,63.7676 c 0,2.1846 1.7705,3.956 3.956,3.956 l 34.3301,0 0,-27.7578 -9.3408,0 0,-10.8183 9.3408,0 0,-7.9776 c 0,-9.2588 5.6543,-14.2998 13.9141,-14.2998 3.956,0 7.3554,0.2945 8.3466,0.4263 l 0,9.6753 -5.7275,0.002 c -4.4922,0 -5.3613,2.1348 -5.3613,5.2666 l 0,6.9068 10.7119,0 -1.3946,10.8183 -9.3173,0 0,27.7578 18.2656,0 c 2.1846,0 3.956,-1.7714 3.956,-3.956 l 0,-63.7676 c 0,-2.1855 -1.7714,-3.956 -3.956,-3.956 z"
       id="path4229"
       inkscape:connector-curvature="0"
       style="fill:#fcee15;fill-opacity:1" />
    <rect
       height="128"
       width="128"
       id="rect4233"
       x="446.85254"
       y="308.68777"
       style="fill:#262626" />
    <path
       d="m 538.59764,360.43289 c 0,16.1553 -8.9746,28.2197 -22.2148,28.2197 -4.4444,0 -8.625,-2.4043 -10.0601,-5.1347 0,0 -2.3901,9.4902 -2.895,11.3203 -1.7798,6.4648 -7.0249,12.9394 -7.4302,13.4746 -0.2846,0.3652 -0.915,0.25 -0.98,-0.2344 -0.1147,-0.8252 -1.4497,-8.9902 0.125,-15.6504 0.7901,-3.3398 5.295,-22.435 5.295,-22.435 0,0 -1.315,-2.6299 -1.315,-6.5152 0,-6.1025 3.5401,-10.6572 7.94,-10.6572 3.7451,0 5.5556,2.8096 5.5556,6.1797 0,3.7676 -2.3955,9.3975 -3.6352,14.6128 -1.0352,4.3696 2.1899,7.9302 6.4995,7.9302 7.7998,0 13.0498,-10.0205 13.0498,-21.8907 0,-9.0224 -6.0742,-15.7797 -17.1294,-15.7797 -12.4854,0 -20.2705,9.3149 -20.2705,19.7202 0,3.5849 1.06,6.1172 2.7153,8.0722 0.7603,0.8999 0.8701,1.2627 0.5947,2.2979 -0.2045,0.7598 -0.6494,2.5801 -0.8447,3.3047 -0.27,1.04 -1.1147,1.415 -2.06,1.0303 -5.75,-2.3506 -8.4297,-8.6504 -8.4297,-15.73 0,-11.6978 9.8647,-25.7202 29.4243,-25.7202 15.7256,0 26.0654,11.3725 26.0654,23.5849 z"
       id="path4235"
       inkscape:connector-curvature="0"
       style="fill:#fcee15;fill-opacity:1" />
    <rect
       height="128"
       width="128"
       id="rect4239"
       x="182.84338"
       y="308.68777"
       style="fill:#262626" />
    <path
       style="fill:#fcee15;fill-opacity:1;stroke:#ffea00;stroke-width:4;stroke-miterlimit:10"
       inkscape:connector-curvature="0"
       stroke-miterlimit="10"
       d="M 230.21058,355.49349"
       id="path4243" />
    <path
       style="fill:#fcee15;fill-opacity:1"
       inkscape:connector-curvature="0"
       d="m 256.46838,411.08819 c 7.6846,0 15.2988,-2.7363 17.8184,-6.0508 l 0.5039,-0.6641 -4.7637,-14.1191 c -0.044,-0.1309 -0.166,-0.2187 -0.3047,-0.2187 l -0.8984,0 -0.4082,0 -9.334,0 c -0.1445,0 -0.2754,-0.0918 -0.3115,-0.2315 -0.1241,-0.4707 -0.1983,-1.0459 -0.21,-1.7578 l 0,-17.2676 c 0,-0.1777 0.1445,-0.3213 0.3223,-0.3213 l 12.5195,0 c 0.1777,0 0.3223,-0.1435 0.3223,-0.3213 l 0,-17.666 c 0,-0.1767 -0.1446,-0.3213 -0.3223,-0.3213 l -12.4668,0 c -0.1768,0 -0.3203,-0.1435 -0.3203,-0.3213 l 0,-17.2187 c 0,-0.1768 -0.1445,-0.3213 -0.3223,-0.3213 l -9.751,0 -3.4086,0 -8.7027,0 c -1.5635,0 -3.3677,1.1602 -3.6313,3.3096 -1.0918,8.8877 -5.168,14.2207 -12.8286,16.7803 l -0.8545,0.2851 c -0.1314,0.044 -0.2198,0.167 -0.2198,0.3047 l 0,15.1689 c 0,0.1778 0.1441,0.3213 0.3213,0.3213 l 5.9512,0 0,0 1.8726,0 c 0,0 0,14.1582 0,18.6817 0,14.914 10.3295,21.9492 29.4272,21.9492 z m 14.6426,-7.209 c -2.3975,2.3066 -7.3194,4.0195 -12.0371,4.0986 -0.1778,0.003 -0.3516,0.005 -0.5274,0.005 l -0.002,0 c -15.5157,-0.001 -19.6553,-11.8447 -19.6553,-18.8437 l 0,-21.5059 c 0,-0.1777 -0.144,-0.3213 -0.3213,-0.3213 l -7.5024,0 c -0.1778,0 -0.3213,-0.1435 -0.3213,-0.3213 l 0,-9.7968 c 0,-0.1309 0.082,-0.2481 0.2041,-0.295 8.0185,-3.122 12.4966,-9.3242 13.6748,-18.9179 0.0654,-0.5332 0.5054,-0.5479 0.5098,-0.5479 l 10.0151,0 c 0.1777,0 0.3213,0.1436 0.3213,0.3213 l 0,17.2188 c 0,0.1777 0.1435,0.3212 0.3213,0.3212 l 12.4668,0 c 0.1777,0 0.3203,0.1436 0.3203,0.3213 l 0,11.375 c 0,0.1778 -0.1426,0.3213 -0.3203,0.3213 l -12.5205,0 c -0.1778,0 -0.3213,0.1436 -0.3213,0.3213 l 0,20.4385 c 0.0742,4.6025 2.3007,6.9355 6.6201,6.9355 1.7402,0 3.7334,-0.4052 5.5537,-1.1005 0.1699,-0.0645 0.3574,0.0214 0.416,0.1943 l 3.1846,9.4404 c 0.04,0.1192 0.0127,0.251 -0.0791,0.3379 z"
       id="path4245" />
    <rect
       height="128"
       width="128"
       id="rect4249"
       x="578.85712"
       y="308.68777"
       style="fill:#262626" />
    <path
       d="m 678.69692,350.45729 c -2.6367,1.17 -5.4707,1.96 -8.4462,2.3155 3.0361,-1.8204 5.3681,-4.7022 6.4658,-8.1358 -2.8408,1.6846 -5.9883,2.9092 -9.3379,3.5684 -2.6826,-2.8584 -6.5049,-4.6436 -10.7344,-4.6436 -8.1221,0 -14.7065,6.584 -14.7065,14.7051 0,1.1533 0.1303,2.2754 0.3808,3.3516 -12.2221,-0.6133 -23.0581,-6.4678 -30.311,-15.3653 -1.2661,2.1719 -1.9912,4.6983 -1.9912,7.3936 0,5.1015 2.5962,9.6025 6.542,12.2402 -2.4107,-0.0762 -4.6783,-0.7383 -6.6607,-1.8398 -10e-4,0.0615 -10e-4,0.123 -10e-4,0.1855 0,7.125 5.0693,13.0684 11.7968,14.4199 -1.2343,0.336 -2.5337,0.5157 -3.8745,0.5157 -0.9477,0 -1.8691,-0.0928 -2.7671,-0.2637 1.8716,5.8418 7.3028,10.0937 13.7378,10.2129 -5.0332,3.9443 -11.374,6.2949 -18.2641,6.2949 -1.187,0 -2.3575,-0.0693 -3.5078,-0.2051 6.5083,4.1729 14.2377,6.6065 22.5429,6.6065 27.0498,0 41.8418,-22.4082 41.8418,-41.8418 0,-0.6377 -0.0146,-1.2715 -0.0429,-1.9024 2.873,-2.0732 5.3671,-4.663 7.3378,-7.6123 z"
       id="path4251"
       inkscape:connector-curvature="0"
       style="fill:#fcee15;fill-opacity:1" />
    <path
       style="fill:#fcee15;fill-opacity:1"
       inkscape:connector-curvature="0"
       d="m 843.36705,620.18977 c 7.6846,0 15.2988,-2.7363 17.8184,-6.0508 l 0.5039,-0.6641 -4.7637,-14.1191 c -0.044,-0.1309 -0.166,-0.2187 -0.3047,-0.2187 l -0.8984,0 -0.4082,0 -9.334,0 c -0.1445,0 -0.2754,-0.0918 -0.3115,-0.2315 -0.1241,-0.4707 -0.1983,-1.0459 -0.21,-1.7578 l 0,-17.2676 c 0,-0.1777 0.1445,-0.3213 0.3223,-0.3213 l 12.5195,0 c 0.1777,0 0.3223,-0.1435 0.3223,-0.3213 l 0,-17.666 c 0,-0.1767 -0.1446,-0.3213 -0.3223,-0.3213 l -12.4668,0 c -0.1768,0 -0.3203,-0.1435 -0.3203,-0.3213 l 0,-17.2187 c 0,-0.1768 -0.1445,-0.3213 -0.3223,-0.3213 l -9.751,0 -3.4086,0 -8.7027,0 c -1.5635,0 -3.3677,1.1602 -3.6313,3.3096 -1.0918,8.8877 -5.168,14.2207 -12.8286,16.7803 l -0.8545,0.2851 c -0.1314,0.044 -0.2198,0.167 -0.2198,0.3047 l 0,15.1689 c 0,0.1778 0.1441,0.3213 0.3213,0.3213 l 5.9512,0 0,0 1.8726,0 c 0,0 0,14.1582 0,18.6817 0,14.914 10.3295,21.9492 29.4272,21.9492 z m 14.6426,-7.209 c -2.3975,2.3066 -7.3194,4.0195 -12.0371,4.0986 -0.1778,0.003 -0.3516,0.005 -0.5274,0.005 l -0.002,0 c -15.5157,-0.001 -19.6553,-11.8447 -19.6553,-18.8437 l 0,-21.5059 c 0,-0.1777 -0.144,-0.3213 -0.3213,-0.3213 l -7.5024,0 c -0.1778,0 -0.3213,-0.1435 -0.3213,-0.3213 l 0,-9.7968 c 0,-0.1309 0.082,-0.2481 0.2041,-0.295 8.0185,-3.122 12.4966,-9.3242 13.6748,-18.9179 0.0654,-0.5332 0.5054,-0.5479 0.5098,-0.5479 l 10.0151,0 c 0.1777,0 0.3213,0.1436 0.3213,0.3213 l 0,17.2188 c 0,0.1777 0.1435,0.3212 0.3213,0.3212 l 12.4668,0 c 0.1777,0 0.3203,0.1436 0.3203,0.3213 l 0,11.375 c 0,0.1778 -0.1426,0.3213 -0.3203,0.3213 l -12.5205,0 c -0.1778,0 -0.3213,0.1436 -0.3213,0.3213 l 0,20.4385 c 0.0742,4.6025 2.3007,6.9355 6.6201,6.9355 1.7402,0 3.7334,-0.4052 5.5537,-1.1005 0.1699,-0.0645 0.3574,0.0214 0.416,0.1943 l 3.1846,9.4404 c 0.04,0.1192 0.0127,0.251 -0.0791,0.3379 z"
       id="path4245-3" />
    <path
       d="m 732.63957,496.18758 -78.61748,0 c -2.69444,0 -4.87725,2.18281 -4.87725,4.87725 l 0,78.61748 c 0,2.69334 2.18281,4.87725 4.87725,4.87725 l 42.32472,0 0,-34.22189 -11.51603,0 0,-13.33761 11.51603,0 0,-9.83539 c 0,-11.41494 6.97105,-17.62986 17.15435,-17.62986 4.87725,0 9.06829,0.36308 10.29031,0.52557 l 0,11.92844 -7.06129,0.002 c -5.53832,0 -6.60981,2.63194 -6.60981,6.49306 l 0,8.51522 13.20643,0 -1.71937,13.33761 -11.48706,0 0,34.2219 22.5192,0 c 2.69334,0 4.87725,-2.18392 4.87725,-4.87726 l 0,-78.61747 c 0,-2.69445 -2.18391,-4.87725 -4.87725,-4.87725 z"
       id="path4229-6"
       inkscape:connector-curvature="0"
       style="fill:#fcce15;fill-opacity:1" />
    <path
       d="m 449.7448,580.82275 c 0,19.91747 -11.06455,34.79136 -27.38807,34.79136 -5.47938,0 -10.63354,-2.9642 -12.40284,-6.33044 0,0 -2.94669,11.70023 -3.56917,13.95651 -2.19427,7.97029 -8.66083,15.95266 -9.16051,16.6125 -0.35088,0.45025 -1.12808,0.30822 -1.20822,-0.28899 -0.14141,-1.01736 -1.7873,-11.08379 0.15411,-19.29498 0.9741,-4.11756 6.52808,-27.65955 6.52808,-27.65955 0,0 -1.62124,-3.24234 -1.62124,-8.03243 0,-7.52362 4.3645,-13.13899 9.78903,-13.13899 4.61724,0 6.84936,3.46388 6.84936,7.6188 0,4.64498 -2.95335,11.58594 -4.48175,18.01575 -1.27627,5.38717 2.69988,9.77694 8.01307,9.77694 9.61618,0 16.08878,-12.35402 16.08878,-26.98849 0,-11.12349 -7.48873,-19.4544 -21.11841,-19.4544 -15.39294,0 -24.991,11.48411 -24.991,24.31254 0,4.41974 1.30684,7.54175 3.34763,9.95202 0.93736,1.10946 1.07273,1.55675 0.73319,2.83302 -0.25212,0.93674 -0.80063,3.18094 -1.04141,4.07428 -0.33288,1.28219 -1.37429,1.74452 -2.53973,1.27023 -7.08902,-2.89799 -10.39276,-10.66486 -10.39276,-19.39312 0,-14.42192 12.16194,-31.70979 36.27649,-31.70979 19.38769,0 32.13537,14.02087 32.13537,29.07723 z"
       id="path4235-7"
       inkscape:connector-curvature="0"
       style="fill:#fcce15;fill-opacity:1" />
    <path
       style="fill:#fcee15;fill-opacity:1;stroke:#ffea00;stroke-width:4.93149948;stroke-miterlimit:10"
       inkscape:connector-curvature="0"
       stroke-miterlimit="10"
       d="M -354.33642,440.89206"
       id="path4243-5" />
    <path
       style="fill:#fcce15;fill-opacity:1"
       inkscape:connector-curvature="0"
       d="m 104.15646,421.0408 c 9.47415,0 18.8615,-3.37351 21.96785,-7.45988 l 0.62125,-0.81875 -5.87305,-17.40709 c -0.0542,-0.16138 -0.20465,-0.26962 -0.37565,-0.26962 l -1.10762,0 -0.50326,0 -11.50765,0 c -0.17815,0 -0.33954,-0.11318 -0.38404,-0.28542 -0.153,-0.58031 -0.24448,-1.28946 -0.25891,-2.16714 l 0,-21.28879 c 0,-0.21909 0.17815,-0.39613 0.39736,-0.39613 l 15.43498,0 c 0.21908,0 0.39735,-0.17691 0.39735,-0.39612 l 0,-21.77997 c 0,-0.21785 -0.17827,-0.39612 -0.39735,-0.39612 l -15.37001,0 c -0.21797,0 -0.39489,-0.17692 -0.39489,-0.39612 l 0,-21.22851 c 0,-0.21797 -0.17815,-0.39612 -0.39735,-0.39612 l -12.021769,0 -4.20237,0 -10.72934,0 c -1.9276,0 -4.15196,1.43038 -4.47694,4.08032 -1.34606,10.95743 -6.3715,17.53235 -15.81606,20.68802 l -1.05349,0.35149 c -0.162,0.0542 -0.27099,0.20589 -0.27099,0.37565 l 0,18.70136 c 0,0.21921 0.17766,0.39612 0.39612,0.39612 l 7.33709,0 0,0 2.30868,0 c 0,0 0,17.45529 0,23.0322 0,18.3871 12.73498,27.06062 36.280059,27.06062 z m 18.05249,-8.88779 c -2.95582,2.84374 -9.0239,4.95554 -14.84024,5.05306 -0.2192,0.004 -0.43348,0.006 -0.65022,0.006 l -0.002,0 c -19.128919,-10e-4 -24.232529,-14.60303 -24.232529,-23.23192 l 0,-26.51409 c 0,-0.21908 -0.17753,-0.39612 -0.39612,-0.39612 l -9.24952,0 c -0.21921,0 -0.39612,-0.17692 -0.39612,-0.39612 l 0,-12.07823 c 0,-0.16139 0.10109,-0.30588 0.25162,-0.3637 9.88581,-3.84904 15.40675,-11.49557 16.85932,-23.3234 0.0806,-0.65737 0.6231,-0.6755 0.62852,-0.6755 l 12.347369,0 c 0.21908,0 0.39612,0.17704 0.39612,0.39613 l 0,21.22862 c 0,0.21908 0.17692,0.396 0.39612,0.396 l 15.37001,0 c 0.21908,0 0.39489,0.17704 0.39489,0.39612 l 0,14.02396 c 0,0.2192 -0.17581,0.39612 -0.39489,0.39612 l -15.43621,0 c -0.21921,0 -0.39612,0.17704 -0.39612,0.39612 l 0,25.19812 c 0.0915,5.6743 2.83647,8.5506 8.16175,8.5506 2.14545,0 4.60282,-0.49956 6.84702,-1.35678 0.20946,-0.0795 0.44063,0.0264 0.51287,0.23955 l 3.92622,11.63883 c 0.0493,0.14696 0.0156,0.30945 -0.0975,0.41659 z"
       id="path4245-35" />
    <path
       d="m 547.60741,524.07735 c -3.25072,1.44246 -6.74469,2.41643 -10.41311,2.85472 3.74313,-2.24433 6.6182,-5.79723 7.97152,-10.03043 -3.50235,2.0769 -7.38282,3.58668 -11.51246,4.39939 -3.30731,-3.52405 -8.01973,-5.72497 -13.23417,-5.72497 -10.01353,0 -18.13128,8.11725 -18.13128,18.12955 0,1.42187 0.16065,2.80528 0.46948,4.1321 -15.06833,-0.75612 -28.42776,-7.97399 -37.36968,-18.94349 -1.56094,2.67768 -2.4549,5.79241 -2.4549,9.11538 0,6.28951 3.20079,11.83868 8.06547,15.09064 -2.9721,-0.0939 -5.76776,-0.91024 -8.21181,-2.26825 -0.001,0.0758 -0.001,0.15165 -0.001,0.2287 0,8.78423 6.24982,16.1117 14.54398,17.77793 -1.52174,0.41425 -3.12373,0.6358 -4.77677,0.6358 -1.1684,0 -2.30437,-0.11441 -3.41149,-0.32511 2.30745,7.20221 9.00344,12.44427 16.93699,12.59123 -6.20531,4.86282 -14.02272,7.76082 -22.51735,7.76082 -1.46342,0 -2.9065,-0.0854 -4.32468,-0.25286 8.02392,5.14466 17.5533,8.14499 27.79258,8.14499 33.34903,0 51.58571,-27.62651 51.58571,-51.58571 0,-0.7862 -0.018,-1.5676 -0.0529,-2.34542 3.54205,-2.556 6.61697,-5.7489 9.04659,-9.38501 z"
       id="path4251-6"
       inkscape:connector-curvature="0"
       style="fill:#fcce15;fill-opacity:1" />
    <path
       inkscape:connector-curvature="0"
       d="m 283.02558,536.76832 -72.36438,0 a 10.337768,10.337768 0 0 0 -10.33777,10.33778 l 0,51.68883 a 10.337768,10.337768 0 0 0 10.33777,10.33777 l 72.36438,0 a 10.337768,10.337768 0 0 0 10.33776,-10.33777 l 0,-51.68883 a 10.337768,10.337768 0 0 0 -10.33776,-10.33778 z m 0,20.67553 -36.18219,25.84444 -36.18219,-25.84444 0,-10.33775 36.18219,25.84442 36.18219,-25.84442 z"
       id="path5"
       style="fill:#fcce15;fill-opacity:1" />
  </g>
</svg>
